IS415 AY2022-23T2 - In-class Exercise 1: Doing Data Science with Rtidyverse methods
…
Tidyverse approach to view the data

Now, use the code below to view the data.

realis2019

# A tibble: 19,515 × 20
   Project Nam…¹ Address No. o…² Area …³ Type …⁴ Trans…⁵ Nett …⁶ Unit …⁷ Unit …⁸
   <chr>         <chr>     <dbl>   <dbl> <chr>     <dbl> <chr>     <dbl>   <dbl>
 1 PEIRCE VIEW   557 Up…       1     113 Strata   840000 -          7434     691
 2 FLORIDA PARK  54 Sun…       1     312 Land    3040000 -          9737     905
 3 BULLION PARK  164 Le…       1      75 Strata   860000 -         11467    1065
 4 CASTLE GREEN  483 Yi…       1     107 Strata  1000000 -          9346     868
 5 HAPPY ESTATE  36 Tho…       1     687 Land    7000000 -         10183     946
 6 TEACHER'S HO… 148 Ta…       1     228 Land    2880000 -         12659    1176
 7 THE PANORAMA  20 Ang…       1      94 Strata  1510000 -         16064    1492
 8 THE PANORAMA  16 Ang…       1      42 Strata   710000 -         16905    1570
 9 CHIP THYE GA… 8 Yio …       1     207 Land    2800000 -         13500    1254
10 TEACHER'S HO… 16 Kal…       1     232 Land    2300000 -          9935     923
# … with 19,505 more rows, 11 more variables: `Sale Date` <chr>,
#   `Property Type` <chr>, Tenure <chr>, `Completion Date` <chr>,
#   `Type of Sale` <chr>, `Purchaser Address Indicator` <chr>,
#   `Postal District` <dbl>, `Postal Sector` <dbl>, `Postal Code` <dbl>,
#   `Planning Region` <chr>, `Planning Area` <chr>, and abbreviated variable
#   names ¹​`Project Name`, ²​`No. of Units`, ³​`Area (sqm)`, ⁴​`Type of Area`,
#   ⁵​`Transacted Price ($)`, ⁶​`Nett Price($)`, ⁷​`Unit Price ($ psm)`, …
…
Getting to know %>% or pipe() operator

Pipe operator (i.e. %>%) is provided by the magrittr package.

It forwards a value, or the result of an expression, into the next function call/expression.

Refer to the magrittr vignette for more examples.

More advanced usage of pivot_longer()

A more challenging situation occurs when you have multiple variables crammed into the column names. For example, take the who dataset:

who

# A tibble: 7,240 × 60
   country     iso2  iso3   year new_s…¹ new_s…² new_s…³ new_s…⁴ new_s…⁵ new_s…⁶
   <chr>       <chr> <chr> <int>   <int>   <int>   <int>   <int>   <int>   <int>
 1 Afghanistan AF    AFG    1980      NA      NA      NA      NA      NA      NA
 2 Afghanistan AF    AFG    1981      NA      NA      NA      NA      NA      NA
 3 Afghanistan AF    AFG    1982      NA      NA      NA      NA      NA      NA
 4 Afghanistan AF    AFG    1983      NA      NA      NA      NA      NA      NA
 5 Afghanistan AF    AFG    1984      NA      NA      NA      NA      NA      NA
 6 Afghanistan AF    AFG    1985      NA      NA      NA      NA      NA      NA
 7 Afghanistan AF    AFG    1986      NA      NA      NA      NA      NA      NA
 8 Afghanistan AF    AFG    1987      NA      NA      NA      NA      NA      NA
 9 Afghanistan AF    AFG    1988      NA      NA      NA      NA      NA      NA
10 Afghanistan AF    AFG    1989      NA      NA      NA      NA      NA      NA
# … with 7,230 more rows, 50 more variables: new_sp_m65 <int>,
#   new_sp_f014 <int>, new_sp_f1524 <int>, new_sp_f2534 <int>,
#   new_sp_f3544 <int>, new_sp_f4554 <int>, new_sp_f5564 <int>,
#   new_sp_f65 <int>, new_sn_m014 <int>, new_sn_m1524 <int>,
#   new_sn_m2534 <int>, new_sn_m3544 <int>, new_sn_m4554 <int>,
#   new_sn_m5564 <int>, new_sn_m65 <int>, new_sn_f014 <int>,
#   new_sn_f1524 <int>, new_sn_f2534 <int>, new_sn_f3544 <int>, …
…
We can break these variables up by specifying multiple column names in names_to, and then either providing names_sep or names_pattern. Here names_pattern is the most natural fit. It has a similar interface to extract: you give it a regular expression containing groups (defined by ()) and it puts each group in a column.

who_longer1 <- who %>%
  pivot_longer(
    cols = new_sp_m014:newrel_f65,
    names_to = c("diagnosis", "gender", "age"),
    names_pattern = "new_?(.*)_(.)(.*)",
    values_to = "count")

More advanced usage of pivot_longer()

The output data frame will look similar to below.

# A tibble: 405,440 × 8
   country     iso2  iso3   year diagnosis gender age   count
   <chr>       <chr> <chr> <int> <chr>     <chr>  <chr> <int>
 1 Afghanistan AF    AFG    1980 sp        m      014      NA
 2 Afghanistan AF    AFG    1980 sp        m      1524     NA
 3 Afghanistan AF    AFG    1980 sp        m      2534     NA
 4 Afghanistan AF    AFG    1980 sp        m      3544     NA
 5 Afghanistan AF    AFG    1980 sp        m      4554     NA
 6 Afghanistan AF    AFG    1980 sp        m      5564     NA
 7 Afghanistan AF    AFG    1980 sp        m      65       NA
 8 Afghanistan AF    AFG    1980 sp        f      014      NA
 9 Afghanistan AF    AFG    1980 sp        f      1524     NA
10 Afghanistan AF    AFG    1980 sp        f      2534     NA
# … with 405,430 more rows
…
More advanced usage of pivot_longer()

The data frame will look similar to below.

# A tibble: 405,440 × 8
   country     iso2  iso3   year diagnosis gender age   count
   <chr>       <chr> <chr> <int> <chr>     <fct>  <ord> <int>
 1 Afghanistan AF    AFG    1980 sp        m      014      NA
 2 Afghanistan AF    AFG    1980 sp        m      1524     NA
 3 Afghanistan AF    AFG    1980 sp        m      2534     NA
 4 Afghanistan AF    AFG    1980 sp        m      3544     NA
 5 Afghanistan AF    AFG    1980 sp        m      4554     NA
 6 Afghanistan AF    AFG    1980 sp        m      5564     NA
 7 Afghanistan AF    AFG    1980 sp        m      65       NA
 8 Afghanistan AF    AFG    1980 sp        f      014      NA
 9 Afghanistan AF    AFG    1980 sp        f      1524     NA
10 Afghanistan AF    AFG    1980 sp        f      2534     NA
# … with 405,430 more rows
…
num_range(), selects columns named x1, x2, x3, x4, x5.

one_of(), selects columns whose names are in a group of names.

starts_with(), selects columns whose name starts with a character string.

Selecting columns to retain

realis2019_selected <- realis2019 %>%
  select(`Project Name`,
         `Transacted Price ($)`,
         `Property Type`)
realis2019_selected

# A tibble: 19,515 × 3
   `Project Name`           `Transacted Price ($)` `Property Type`    
   <chr>                                     <dbl> <chr>              
 1 PEIRCE VIEW                              840000 Condominium        
 2 FLORIDA PARK                            3040000 Semi-Detached House
 3 BULLION PARK                             860000 Condominium        
 4 CASTLE GREEN                            1000000 Condominium        
 5 HAPPY ESTATE                            7000000 Semi-Detached House
 6 TEACHER'S HOUSING ESTATE                2880000 Terrace House      
 7 THE PANORAMA                            1510000 Condominium        
 8 THE PANORAMA                             710000 Condominium        
 9 CHIP THYE GARDEN                        2800000 Terrace House      
10 TEACHER'S HOUSING ESTATE                2300000 Terrace House      
# … with 19,505 more rows

Selecting columns to drop

realis2019_selected <- realis2019 %>%
  select(- `Address`, -`Unit Price ($ psf)`, 
         -`Nett Price($)`, -`Completion Date`, 
         -`Tenure`)
realis2019_selected

# A tibble: 19,515 × 15
   Project Nam…¹ No. o…² Area …³ Type …⁴ Trans…⁵ Unit …⁶ Sale …⁷ Prope…⁸ Type …⁹
   <chr>           <dbl>   <dbl> <chr>     <dbl>   <dbl> <chr>   <chr>   <chr>  
 1 PEIRCE VIEW         1     113 Strata   840000    7434 10-Jan… Condom… Resale 
 2 FLORIDA PARK        1     312 Land    3040000    9737 10-Jan… Semi-D… Resale 
 3 BULLION PARK        1      75 Strata   860000   11467 8-Jan-… Condom… Resale 
 4 CASTLE GREEN        1     107 Strata  1000000    9346 3-Jan-… Condom… Resale 
 5 HAPPY ESTATE        1     687 Land    7000000   10183 2-Jan-… Semi-D… Resale 
 6 TEACHER'S HO…       1     228 Land    2880000   12659 11-Feb… Terrac… Resale 
 7 THE PANORAMA        1      94 Strata  1510000   16064 8-Feb-… Condom… Resale 
 8 THE PANORAMA        1      42 Strata   710000   16905 8-Feb-… Condom… Resale 
 9 CHIP THYE GA…       1     207 Land    2800000   13500 8-Feb-… Terrac… Resale 
10 TEACHER'S HO…       1     232 Land    2300000    9935 8-Feb-… Terrac… Resale 
# … with 19,505 more rows, 6 more variables:
#   `Purchaser Address Indicator` <chr>, `Postal District` <dbl>,
#   `Postal Sector` <dbl>, `Postal Code` <dbl>, `Planning Region` <chr>,
#   `Planning Area` <chr>, and abbreviated variable names ¹​`Project Name`,
#   ²​`No. of Units`, ³​`Area (sqm)`, ⁴​`Type of Area`, ⁵​`Transacted Price ($)`,
#   ⁶​`Unit Price ($ psm)`, ⁷​`Sale Date`, ⁸​`Property Type`, ⁹​`Type of Sale`
…
An intermediate level usage of group_by() and ungroup()

In the code chunk below, group_by() is used to group transaction records by Property Type, Type of Sale, and Planning Area, then summarise() is used to calculate their respective sum of unit sold, average unit price and median unit price.

realis2019_grouped <- realis2019 %>%
  group_by(`Property Type`, `Type of Sale`, `Planning Area`) %>%
  summarise(`Total units sold` = sum(`No. of Units`),
            `Average unit price` = mean(`Unit Price ($ psm)`),
            `Median unit price` = median(`Unit Price ($ psm)`)) %>%
  ungroup()
realis2019_grouped

# A tibble: 258 × 6
   `Property Type` `Type of Sale` `Planning Area` Total units …¹ Avera…² Media…³
   <chr>           <chr>          <chr>                    <dbl>   <dbl>   <dbl>
 1 Apartment       New Sale       Ang Mo Kio                  28  19058.  19257 
 2 Apartment       New Sale       Bedok                       60  20385.  20640 
 3 Apartment       New Sale       Bukit Batok                 80  14972.  14980.
 4 Apartment       New Sale       Bukit Merah                684  22812.  21637 
 5 Apartment       New Sale       Bukit Panjang               44  16764   16880 
 6 Apartment       New Sale       Bukit Timah                175  23500.  25333 
 7 Apartment       New Sale       Clementi                   761  16630.  17071 
 8 Apartment       New Sale       Downtown Core              128  28387.  27772.
 9 Apartment       New Sale       Geylang                    778  18198.  18153 
10 Apartment       New Sale       Hougang                    961  15038.  15105 
# … with 248 more rows, and abbreviated variable names ¹​`Total units sold`,
#   ²​`Average unit price`, ³​`Median unit price`
…
